<svg version="1.1" xmlns="http://www.w3.org/2000/svg" viewBox="0 0 900 600">
<path d="M740.207,188.46l-66.303-2.416l-23.299-33.843L779.278,84.47l-88.596-56.104l-128.12,25.106L514.957,8.189l-3.462-2.077
	l-1.148-0.382c-9.48-3.161-18.874-4.764-27.915-4.764c-39.669,0-60.407,30.024-62.797,33.701l-0.282,0.454
	c-14.044,23.798-11.394,50.436,7.665,77.032c11.313,15.786,25.852,27.943,34.228,34.255c-1.053,15.628-1.738,30.109-2.124,43.536
	c-38.196-27.421-83.888-42.283-131.279-42.283c-124.401,0-225.608,101.208-225.608,225.608
	c0,121.109,95.928,221.345,215.792,226.504l4.982,0.166c1.608,0.032,3.218,0.061,4.834,0.061c3.959,0,7.895-0.104,11.803-0.308
	l0.197,0.099v-0.111c118.843-6.26,213.608-106.036,213.608-226.458c-0.127-29.112-5.67-57.354-16.462-84.114l32.8-52.435
	l30.563,21.938l-2.42,66.563l59.993,71.084l44.639-109.497l106.362-41.006L740.207,188.46z M627.606,314.854l2.682-70.706
	l-68.665-49.32l-67.128,107.256c-5.074-28.083-9.404-78.203-3.23-161.589l0.562-8.947l-7.362-4.528
	c-1.653-1.087-60.959-40.886-39.763-76.823l0.065-0.11c0.702-1.102,12.974-19.726,37.455-19.726c5.098,0,10.479,0.803,16.029,2.389
	l55.161,52.43l131.517-25.747l35.96,22.73l-113.043,59.47l50.451,73.086l71.08,2.686l22.813,19.049l-71.683,27.624l-31.4,76.311
	L627.606,314.854z M458.805,227.137c1.157,84.191,15.465,113.774,17.527,117.603l6.136,10.879H451.11
	c-8.541-57.907-40.357-117.07-95.095-176.698C394.106,184.418,429.675,201.028,458.805,227.137z M311.43,355.618h-79.343
	c0.197-3.57,0.488-7.134,0.882-10.688c7.577-68.373,50.638-118.332,78.46-144.01L311.43,355.618L311.43,355.618z M339.84,355.618
	V204.7c45.874,51.477,73.137,101.987,81.5,150.918H339.84L339.84,355.618z M232.8,386.234h78.63v163.106
	C264.432,494.38,238.109,439.003,232.8,386.234z M339.84,386.234h84.268c0.065,7.695-0.349,15.347-1.248,22.951
	c-8.127,67.907-53.565,117.92-83.02,143.004V386.234L339.84,386.234z M290.478,180.48c-7.599,7.099-16.132,15.771-24.859,25.981
	c-35.13,41.099-56.484,87.761-61.75,134.938c-0.531,4.731-0.904,9.473-1.132,14.22h-70.464
	C140.109,268.067,205.644,196.889,290.478,180.48z M203.352,386.234c5.189,59.086,33.469,120.269,84.47,180.447
	c-85.041-17.638-150.101-91.644-155.914-180.447H203.352z M367.015,566.807c32.724-30.102,76.395-83.604,84.925-154.171
	c1.061-8.766,1.563-17.567,1.519-26.401h70.177C517.802,475.247,452.407,549.386,367.015,566.807z M495.379,355.618l21.653-34.617
	c3.121,11.302,5.206,22.86,6.248,34.617H495.379z"/>
</svg>
