<?xml version="1.0" encoding="utf-8"?>
<!-- Generator: Adobe Illustrator 19.0.0, SVG Export Plug-In . SVG Version: 6.00 Build 0)  -->
<svg version="1.1" id="Layer_1" xmlns="http://www.w3.org/2000/svg" xmlns:xlink="http://www.w3.org/1999/xlink" x="0px" y="0px"
	 viewBox="147.7 267.7 316.6 256.6" style="enable-background:new 147.7 267.7 316.6 256.6;" xml:space="preserve">
<g>
	<g id="XMLID_102_">
		<path id="XMLID_103_" d="M439,320.3h-44.8l-21-52.6H239.8l-21,52.6h-7V294h-31.5v26.3H174c-13.9,0-25.2,11.3-25.2,25.2v154.4
			c0,14,11.4,25.4,25.4,25.4h264.7c14,0,25.4-11.4,25.4-25.4V345.5C464.2,331.6,452.9,320.3,439,320.3z M190.8,304.5h10.5v15.8
			h-10.5V304.5z M453.7,499.9c0,8.2-6.7,14.9-14.9,14.9H174.2c-8.2,0-14.9-6.7-14.9-14.9V345.5c0-8.1,6.6-14.7,14.7-14.7h51.9
			l21-52.6H366l21,52.6h52c8.1,0,14.7,6.6,14.7,14.7V499.9z M306.5,315c-52.2,0-94.6,42.5-94.6,94.6c0,52.2,42.5,94.6,94.6,94.6
			c52.2,0,94.6-42.5,94.6-94.6S358.7,315,306.5,315z M306.5,493.8c-46.4,0-84.1-37.7-84.1-84.1s37.7-84.1,84.1-84.1
			s84.1,37.7,84.1,84.1C390.6,456,352.9,493.8,306.5,493.8z M306.5,346.6c-34.8,0-63.1,28.3-63.1,63.1s28.3,63.1,63.1,63.1
			s63.1-28.3,63.1-63.1S341.3,346.6,306.5,346.6z M306.5,462.2c-29,0-52.6-23.6-52.6-52.6s23.6-52.6,52.6-52.6s52.6,23.6,52.6,52.6
			S335.5,462.2,306.5,462.2z M422.2,341.3c-11.6,0-21,9.4-21,21s9.4,21,21,21s21-9.4,21-21C443.2,350.7,433.8,341.3,422.2,341.3z
			 M422.2,372.8c-5.8,0-10.5-4.7-10.5-10.5s4.7-10.5,10.5-10.5s10.5,4.7,10.5,10.5C432.7,368.1,428,372.8,422.2,372.8z"/>
	</g>
</g>
</svg>
