<?xml version="1.0" encoding="utf-8"?>
<!-- Generator: Adobe Illustrator 19.0.0, SVG Export Plug-In . SVG Version: 6.00 Build 0)  -->
<svg version="1.1" id="Layer_1" xmlns="http://www.w3.org/2000/svg" xmlns:xlink="http://www.w3.org/1999/xlink" x="0px" y="0px"
	 viewBox="124.1 168.5 364.5 455.3" style="enable-background:new 124.1 168.5 364.5 455.3;" xml:space="preserve">
<path d="M488.6,314.3c0-0.2-0.1-0.4-0.1-0.6c-0.1-0.7-0.3-1.4-0.6-2.1c-0.1-0.1,0-0.3-0.1-0.4c0-0.1-0.1-0.1-0.2-0.2
	c-0.4-0.8-1-1.5-1.6-2.1c-0.1-0.1-0.3-0.2-0.4-0.3c-0.4-0.3-0.8-0.6-1.2-0.8l-68.6-34.3c-7.9-43.8-30.5-82.9-57-98.3
	c-11.4-7.7-26-8.9-38.5-3c-12.9,6.5-22,20.7-26.3,40.4l-67.7-33.8c-0.1,0-0.2,0-0.2-0.1c-0.2-0.1-0.3-0.1-0.5-0.2
	c-0.4-0.1-0.9-0.2-1.3-0.3c-0.4-0.1-0.8-0.2-1.2-0.2c-0.1,0-0.1,0-0.2,0c-0.1,0-0.1,0-0.2,0c-0.8,0.1-1.6,0.3-2.5,0.5
	c-0.2,0.1-0.3,0.1-0.5,0.2c-0.1,0-0.2,0-0.2,0.1l-91.1,45.5c-0.1,0-0.1,0.1-0.2,0.2c-0.1,0.1-0.3,0.1-0.4,0.2
	c-0.6,0.4-1.2,0.9-1.7,1.4c-0.1,0.1-0.2,0.3-0.3,0.4c-0.4,0.6-0.8,1.2-1.1,1.9c-0.1,0.2-0.2,0.3-0.2,0.5c-0.2,0.7-0.4,1.5-0.4,2.2
	v256.1c0,2.9,1.6,5.5,4.2,6.8l258,129c0.1,0.1,0.2,0,0.3,0.1h0.1c0.9,0.5,1.9,0.7,3,0.7l0,0l0,0l0,0l0,0c0.6,0,1.2-0.1,1.8-0.2h0.2
	c0.2,0,0.3-0.1,0.5-0.2c0.3-0.1,0.6-0.2,0.9-0.3l91.1-45.5l0,0c0.7-0.3,1.3-0.8,1.8-1.3c0.1-0.1,0.2-0.2,0.3-0.3
	c0.1-0.2,0.3-0.3,0.4-0.5s0.3-0.3,0.4-0.4c0.1-0.2,0.1-0.4,0.3-0.6c0.2-0.3,0.3-0.6,0.5-0.9c0.1-0.3,0.2-0.5,0.2-0.8
	c0.1-0.4,0.2-0.8,0.2-1.2c0-0.2,0.1-0.4,0.1-0.7V314.6C488.7,314.5,488.6,314.4,488.6,314.3z M327.2,185.8
	c7.9-3.4,17.1-2.4,24.1,2.6c20.3,11.7,38.6,42,47.2,76.5l-90.3-45.2C311.1,202.7,317.9,190.4,327.2,185.8z M230.6,235.4
	c8.3-7.5,20.6-8.1,29.6-1.5c16.1,11,28.6,26.5,35.9,44.6c4.8,10.2,8.5,20.9,11.2,31.9L230.6,272V235.4L230.6,235.4z M192.7,209.2
	l22.8-11.4v31.7c-6.2,8.5-10.5,18.3-12.5,28.6l-10.3-5.2V209.2z M177.5,216.8v28.6l-28.6-14.3L177.5,216.8z M382.4,604L139.5,482.6
	V243.4l242.9,121.4V604z M390,351.7l-62.1-31c-1.6-2.9-3.2-5.9-4.7-9c-3-13.6-7.5-26.9-13.4-39.6c-8.6-20.9-23.2-38.7-42-51.3
	c-11.1-7.2-25-8.5-37.2-3.4v-19.5l233.5,116.7L390,351.7z M397.6,366.2c1-0.9,2-1.8,2.9-2.8l27.5-13.8v188.6l-30.4,50.6V366.2z
	 M409.9,597.9l28-46.7l28,18.7L409.9,597.9z M473.5,556.6l-30.4-20.2V342.1l30.4-15.2V556.6z"/>
</svg>
