{
  "name": "web",
  "version": "0.0.0",
  "scripts": {
    "ng": "ng",
    "start": "ng serve",
    "build": "ng build",
    "test": "ng test",
    "lint": "ng lint",
    "e2e": "ng e2e",
    "compile:server": "webpack --config webpack.server.config.js --progress --colors",
    "serve:ssr": "node dist/server",
    "build:ssr": "npm run build:client-and-server-bundles && npm run compile:server",
    "build:client-and-server-bundles": "ng build --prod && ng run web:server:production --bundleDependencies all"
  },
  "private": true,
  "dependencies": {
    "@agm/core": "^1.1.0",
    "@angular/animations": "^8.2.14",
    "@angular/cdk": "^8.2.3",
    "@angular/common": "^8.2.14",
    "@angular/compiler": "^8.2.14",
    "@angular/core": "^8.2.14",
    "@angular/flex-layout": "^8.0.0-beta.27",
    "@angular/forms": "^8.2.14",
    "@angular/http": "^7.2.16",
    "@angular/material": "^8.2.3",
    "@angular/platform-browser": "^8.2.14",
    "@angular/platform-browser-dynamic": "^8.2.14",
    "@angular/platform-server": "^8.2.14",
    "@angular/pwa": "^0.12.4",
    "@angular/router": "^8.2.14",
    "@angular/service-worker": "^6.1.10",
    "@fortawesome/angular-fontawesome": "^0.6.1",
    "@fortawesome/fontawesome-svg-core": "^1.2.28",
    "@fortawesome/free-brands-svg-icons": "^5.13.0",
    "@fortawesome/free-solid-svg-icons": "^5.13.0",
    "@ng-select/ng-select": "^2.20.5",
    "@ng-toolkit/universal": "^7.1.2",
    "@nguniversal/express-engine": "^8.1.1",
    "@nguniversal/module-map-ngfactory-loader": "^8.1.1",
    "@ngx-lite/json-ld": "^0.5.2",
    "@ngx-loading-bar/router": "^2.2.0",
    "@ngx-share/button": "^7.1.4",
    "@ngx-share/buttons": "^7.1.4",
    "@ngx-share/core": "^7.1.4",
    "@schematics/angular": "^8.3.25",
    "@swimlane/ngx-datatable": "^15.0.2",
    "angular-cc-library": "^1.2.5",
    "angular-datatable": "^2.2.1",
    "angular-datatables": "^6.0.1",
    "angular-font-awesome": "^3.1.2",
    "angular-material": "^1.1.21",
    "angular-svg-icon": "^6.0.1",
    "angular-walkthrough": "^0.7.3",
    "angular4-paystack": "^2.4.0",
    "animate.css": "^3.7.2",
    "bootstrap": "^4.4.1",
    "core-js": "^3.6.4",
    "cors": "~2.8.4",
    "datatables.net": "^1.10.20",
    "datatables.net-dt": "^1.10.20",
    "domino": "^2.1.4",
    "event-stream": "^4.0.1",
    "express": "^4.17.1",
    "express-naked-redirect": "^0.1.7",
    "float-label-css": "^1.0.2",
    "font-awesome": "^4.7.0",
    "install-peerdeps": "^2.0.1",
    "jquery": "^3.4.0",
    "latest": "^0.2.0",
    "localstorage-polyfill": "^1.0.1",
    "mkdirp": "^1.0.3",
    "ng-confirmation-modal": "^2.0.0",
    "ng-lazyload-image": "^6.1.0",
    "ng-sidebar": "^7.3.0",
    "ng2-password-strength-bar": "^1.2.3",
    "ng4-click-outside": "^1.0.1",
    "ngx-bootstrap": "^5.3.2",
    "ngx-bootstrap-product-tour": "^2.0.2",
    "ngx-chips": "^2.1.0",
    "ngx-datatable": "^1.0.3",
    "ngx-flyout": "^1.0.0",
    "ngx-gallery": "^5.10.0",
    "ngx-owl-carousel": "^2.0.7",
    "ngx-page-scroll": "^5.0.1",
    "ngx-pagination": "^3.3.1",
    "ngx-paypal": "^4.0.2",
    "ngx-spinner": "^6.1.2",
    "ngx-toaster": "^1.0.1",
    "ngx-toastr": "^10.2.0",
    "npm": "^6.13.7",
    "prerender-node": "^3.2.5",
    "rxjs": "6.5.4",
    "rxjs-compat": "6.5.4",
    "ts-loader": "4.2.0",
    "tslib": "^1.9.0",
    "webpack-cli": "^3.3.10",
    "zone.js": "^0.10.2"
  },
  "devDependencies": {
    "@angular-devkit/build-angular": "^0.803.25",
    "@angular/cli": "^8.3.25",
    "@angular/compiler-cli": "^8.2.14",
    "@angular/language-service": "^8.2.14",
    "@types/datatables.net": "^1.10.18",
    "@types/jasmine": "^3.5.3",
    "@types/jasminewd2": "^2.0.8",
    "@types/jquery": "^3.3.32",
    "@types/node": "~12.12.25",
    "codelyzer": "~5.2.1",
    "jasmine-core": "~3.5.0",
    "jasmine-spec-reporter": "~4.2.1",
    "karma": "^4.4.1",
    "karma-chrome-launcher": "~3.1.0",
    "karma-coverage-istanbul-reporter": "~1.4.2",
    "karma-jasmine": "~2.0.1",
    "karma-jasmine-html-reporter": "^1.5.1",
    "node-sass": "^4.13.1",
    "nodemon": "^1.19.4",
    "protractor": "^5.4.2",
    "ts-node": "~5.0.1",
    "tslint": "~5.20.1",
    "typescript": "~3.4.5"
  }
}
