<?xml version="1.0" encoding="utf-8"?>
<!-- Generator: Adobe Illustrator 19.0.0, SVG Export Plug-In . SVG Version: 6.00 Build 0)  -->
<svg version="1.1" id="Layer_1" xmlns="http://www.w3.org/2000/svg" xmlns:xlink="http://www.w3.org/1999/xlink" x="0px" y="0px"
	 viewBox="177.7 267.4 256.6 257.2" style="enable-background:new 177.7 267.4 256.6 257.2;" xml:space="preserve">
<path d="M431.9,379.5L400.6,356l31.3-23.9c1.7-1.2,2.8-3.4,2.7-5.7c0-2.3-1.2-4.4-3-5.4l-76-52.5c-1.7-1.2-3.8-1.4-5.6-0.3L306,294
	l-44-25.9c-1.8-1-3.9-0.9-5.6,0.3l-76,52.5c-1.8,1-2.9,3.1-3,5.4s0.9,4.5,2.7,5.7l31.6,23.9l-31.6,23.6c-1.7,1.3-2.7,3.4-2.7,5.7
	c0.2,2.4,1.4,4.5,3.3,5.7l36.7,24.9v38.4c-0.2,9.5,4.1,18.4,11.2,23.2l65.9,43.7c3.5,2.3,7.5,3.4,11.5,3.4c4.1,0.1,8.2-1.1,11.8-3.4
	l65.6-43.7c7.3-4.8,11.6-13.7,11.2-23.2v-38.7L431,391c1.8-1.2,3-3.3,3.3-5.7C434.4,383,433.5,380.8,431.9,379.5z M352.4,281.9
	l65.3,44.8l-28.1,21.2l-71.2-46.1L352.4,281.9z M194.3,326.7l65.3-44.8l34,19.9l-70.9,46.1L194.3,326.7z M194.3,384.9l28.4-21.2
	l70.9,45.8l-34,20.5L194.3,384.9z M300.1,509.4L234.5,466c-3.5-2.6-5.5-7.1-5.3-11.8v-30.3l27.5,19.5c0.9,0.7,1.9,1,3,1
	c1,0,1.9-0.4,2.7-1l37.8-22.5L300.1,509.4L300.1,509.4z M234.5,356l71.5-46.4l71.8,46.4L306,402.1L234.5,356z M377.5,466l-65.6,43.2
	v-88.3l38.1,22.5c0.8,0.6,1.7,1,2.7,1c0.9,0,1.7-0.3,2.4-1l27.8-19.9v30.6C383,458.9,381,463.4,377.5,466z M352.4,430l-34-20.5
	l71.2-45.8l28.1,21.2L352.4,430z"/>
</svg>
