<?xml version="1.0" encoding="utf-8"?>
<!-- Generator: Adobe Illustrator 19.0.0, SVG Export Plug-In . SVG Version: 6.00 Build 0)  -->
<svg version="1.1" id="Layer_1" xmlns="http://www.w3.org/2000/svg" xmlns:xlink="http://www.w3.org/1999/xlink" x="0px" y="0px"
	 viewBox="0 0 508 508" style="enable-background:new 0 0 508 508;" xml:space="preserve">
<path id="XMLID_48_" d="M38.5,249.7c0-33.1,0.2-66.3-0.2-99.4c-0.1-7.2,2-11.5,8.5-15.1c57-32.6,113.7-65.8,171-98
	c5.3-3,15.3-2.6,20.7,0.4c54.3,30.7,107.9,62.3,162,93.4c7.1,4.1,10.1,8.7,10.1,17.1c-0.2,65.4-0.1,130.8,0.3,196.3
	c0.1,8.5-3.2,13-10.2,17c-57.4,32.9-114.5,66.2-172.1,98.8c-4.3,2.5-12.5,2.3-16.9-0.2c-54.9-31.3-109.3-63.3-164.1-94.8
	c-6.7-3.9-9.4-8.1-9.3-16C38.7,316,38.5,282.9,38.5,249.7z M226.6,445.4c3.7-1.4,5.3-1.8,6.7-2.6c52.5-30.3,105.1-60.4,157.3-91.2
	c3.8-2.3,6.9-9.3,6.9-14.1c0.3-58.2,0-116.4-0.2-174.6c0-3.1-0.7-6.2-1.2-10.6c-55.7,32.1-110,63.4-164.2,95
	c-2.8,1.6-5.1,6.7-5.1,10.2C226.5,319.6,226.6,381.5,226.6,445.4z M389.1,140.6c-2.2-1.7-3.3-2.8-4.6-3.6
	c-50.1-29.2-100.2-58.5-150.6-87.3c-3.5-2-10.5-0.9-14.4,1.3c-29.2,16.3-58,33.3-87,50c-24.5,14.1-49,28.3-74.1,42.8
	c2.1,1.8,3.2,3.2,4.6,4C113,177,163.1,206.3,213.6,235c3.6,2.1,10.7,1.3,14.6-0.9c51.2-29.1,102-58.7,153-88.3
	C383.6,144.4,385.9,142.7,389.1,140.6z M52,157.4c-0.5,2.7-1,4.3-1,5.8c0,60.3-0.1,120.6,0.5,180.9c0,4.2,4.1,10,8,12.3
	c48.1,28.5,96.6,56.5,145,84.5c2.7,1.5,5.7,2.4,9.1,3.8c0-63.4,0.2-125.4-0.4-187.4c0-4.1-4.8-9.6-8.8-12
	c-47.4-28-95.2-55.6-142.8-83.2C58.7,160.6,55.8,159.3,52,157.4z"/>
<path id="XMLID_47_" d="M449.7,100.2c-17.1-3.9-31.4-7.1-46.6-10.6c1.2-3.8,2.3-7.1,3.6-11c-27.8-16.3-55.1-32.3-82.8-48.5
	c-2.5,3.1-4.5,5.6-7.1,8.9c-10.9-11.9-21.7-23.6-33.2-36.1c16.3,3.8,31.4,7.3,47.5,11.1c-1.1,3.1-2.4,6.4-4,10.7
	c27.3,16,54.9,32.2,82.9,48.7c2.7-3.4,4.9-6.2,7.3-9.2C427.8,75.8,437.9,87,449.7,100.2z"/>
<path id="XMLID_46_" d="M278.6,485.4c1.6,3.9,3.1,7.2,4.5,10.5c-15.8,3.7-31,7.2-47.7,11.2c11.3-12.5,21.8-24,33-36.3
	c2.3,2.9,4.3,5.4,7.1,9c27.4-16.1,55-32.2,83.3-48.8c-1.6-3.7-2.9-6.6-4.7-10.5c15.3-3.5,29.9-6.8,47-10.7
	c-11.7,13.1-21.8,24.4-32.2,36.1c-2.2-3-4.2-5.7-6.9-9.4C334.2,452.8,306.6,469,278.6,485.4z"/>
<path id="XMLID_45_" d="M471.4,188.7c-3.9,0.9-7.1,1.6-10.9,2.5c0,31.9,0,63.5,0,95.9c3.6,0.7,7.2,1.3,10.9,2
	c-4.6,14.6-9.2,29-14.4,45.5c-5.2-16.2-9.9-30.8-14.8-45.7c3.8-0.5,7.4-1,11.4-1.5c0-32,0-63.3,0-95.4c-3.5-1.1-7.3-2.3-11.1-3.5
	c4.7-14.7,9.3-29,14.5-45.2C462.1,159.2,466.5,173.4,471.4,188.7z"/>
</svg>
