<?xml version="1.0" encoding="utf-8"?>
<!-- Generator: Adobe Illustrator 19.0.0, SVG Export Plug-In . SVG Version: 6.00 Build 0)  -->
<svg version="1.1" id="Layer_1" xmlns="http://www.w3.org/2000/svg" xmlns:xlink="http://www.w3.org/1999/xlink" x="0px" y="0px"
	 viewBox="161.8 260 288.4 272" style="enable-background:new 161.8 260 288.4 272;" xml:space="preserve">
<path d="M369.8,532.2c-0.3,0-0.5,0-0.8,0c-4.6,0-8.6-3.6-9-8.3c-0.4-5,3.3-9.4,8.2-9.8c41.6-3.5,63.8-17.7,63.8-26.6V478
	c-10.5,6.8-25.1,12.1-43.5,15.4c-0.5,0.1-1.1,0.1-1.6,0.1c-4.3,0-8.1-3.1-8.8-7.5c-0.9-4.9,2.4-9.7,7.3-10.5
	c30.3-5.4,46.6-16.6,46.6-24.4v-9.5c-10.5,6.8-25.1,12.1-43.5,15.4c-0.5,0.1-1.1,0.1-1.6,0.1c-4.3,0-8.1-3.1-8.8-7.5
	c-0.9-4.9,2.4-9.7,7.3-10.5c30.3-5.4,46.6-16.6,46.6-24.4v-9.5c-10.5,6.8-25.1,12.1-43.5,15.4c-0.5,0.1-1.1,0.1-1.6,0.1
	c-4.3,0-8.1-3.1-8.8-7.5c-0.9-4.9,2.4-9.7,7.3-10.5c30.3-5.4,46.6-16.6,46.6-24.4v-9.7c-15.5,10-38.8,16.1-62.3,18.1
	c-0.3,0-0.5,0-0.8,0c-4.6,0-8.6-3.6-9-8.3c-0.4-5,3.3-9.4,8.2-9.8c41.6-3.5,63.8-17.7,63.8-26.6v-9.5C413,344.6,381.4,351,351,351
	s-61.9-6.4-81-18.6v9.5c0,5-4,9.1-9,9.1s-9-4.1-9-9.1v-36.4c0-29.6,51-45.5,99.1-45.5s99.1,15.9,99.1,45.5v182
	C450.1,513.7,409.8,528.8,369.8,532.2z M351,278.2c-49.5,0-81,16.2-81,27.3c0,11.1,31.6,27.3,81,27.3s81-16.2,81-27.3
	C432.1,294.4,400.5,278.2,351,278.2z M360,414.7v72.8c0,29.6-51,45.5-99.1,45.5c-48,0-99.1-15.9-99.1-45.5v-72.8
	c0-29.6,51-45.5,99.1-45.5S360,385.1,360,414.7z M179.9,487.5c0,11.1,31.6,27.3,81,27.3c49.5,0,81-16.2,81-27.3V478
	c-19.1,12.2-50.7,18.6-81,18.6s-61.9-6.4-81-18.6V487.5z M179.9,451.1c0,11.1,31.6,27.3,81,27.3c49.5,0,81-16.2,81-27.3v-9.5
	c-19.1,12.2-50.7,18.6-81,18.6s-61.9-6.4-81-18.6V451.1z M179.9,414.7c0,11.1,31.6,27.3,81,27.3c49.5,0,81-16.2,81-27.3
	c0-11.1-31.6-27.3-81-27.3C211.5,387.4,179.9,403.6,179.9,414.7z"/>
</svg>
