<svg version="1.1" xmlns="http://www.w3.org/2000/svg" viewBox="101.9 180.1 408.2 431.8">
<g>
	<g id="XMLID_70_">
		<path id="XMLID_71_" d="M506.4,276.2l-197.2-94.4c-1.7-0.8-3.8-0.8-5.5,0l-197.2,94.4c-2.2,1.1-3.6,3.3-3.6,5.7v229.3
			c0,2.4,1.4,4.6,3.6,5.7l197.2,94.4c0.9,0.4,1.8,0.6,2.8,0.6s1.9-0.2,2.8-0.6l197.2-94.4c2.2-1.1,3.6-3.3,3.6-5.7V281.8
			C510,279.4,508.6,277.2,506.4,276.2z M306.5,194.4L489,281.8l-52.9,25.3c-0.3-0.3-0.7-0.5-1.1-0.7l-181.3-86.8L306.5,194.4z
			 M239.3,226.8l182.3,87.3L384.3,332l-182.2-87.2L239.3,226.8z M425.9,326.1v66.1L391,408.9v-66.1L425.9,326.1z M497.3,507.2
			l-184.5,88.3V380.2l44-21.1c3.2-1.5,4.5-5.3,3-8.4s-5.3-4.5-8.5-2.9l-44.8,21.5l-17.6-8.4c-3.2-1.5-7-0.2-8.5,2.9s-0.2,6.9,3,8.4
			l16.8,8v215.3l-184.5-88.3V291.9l140.5,67.3c0.9,0.4,1.8,0.6,2.8,0.6c2.4,0,4.6-1.3,5.7-3.6c1.5-3.1,0.2-6.9-3-8.4L124,281.9
			l63.2-30.3l191.1,91.5l0.1,0.1v75.7c0,2.2,1.1,4.2,3,5.3c1,0.6,2.2,1,3.4,1c0.9,0,1.9-0.2,2.8-0.6l47.6-22.8
			c2.2-1,3.6-3.3,3.6-5.7V320l58.7-28.1v215.3H497.3z M168.1,482.7l-28.9-13.9c-3.2-1.5-7-0.2-8.5,2.9s-0.2,6.9,3,8.4l28.9,13.9
			c0.9,0.4,1.8,0.6,2.8,0.6c2.4,0,4.6-1.3,5.7-3.6C172.6,488,171.3,484.2,168.1,482.7z M194.8,465.5l-55.5-26.6
			c-3.2-1.5-7-0.2-8.5,2.9s-0.2,6.9,3,8.4l55.5,26.6c0.9,0.4,1.8,0.6,2.8,0.6c2.4,0,4.6-1.3,5.7-3.6
			C199.3,470.8,197.9,467,194.8,465.5z"/>
	</g>
</g>
</svg>
