<svg version="1.1" id="Layer_1" xmlns="http://www.w3.org/2000/svg" viewBox="129.3 211.3 354.1 337.2">
<g>
	<g id="XMLID_56_">
		<path id="XMLID_57_" d="M290.4,516.5l-12.2-53.7c-0.1-0.3-0.2-0.6-0.3-0.9c-2.4-6.4-5.3-12.8-8.6-18.8c-0.1-0.1-0.1-0.2-0.2-0.3
			l-50.1-83c-3.1-5.9-8.3-10.3-14.7-12.4c-4.9-1.6-9.9-1.7-14.8-0.3l-9.4-79.8c-1.6-13.9-14.3-24-28.3-22.3
			c-13.9,1.6-23.9,14.3-22.3,28.3c0,0,0,0,0,0.1l9.8,76.1c2.5,19.2,8.7,37.4,18.5,54.2l48.6,83c0.1,0.1,0.1,0.2,0.2,0.3
			c2.7,4.2,4.7,8.8,6,13.6l7.7,29.3c3.1,11.6,14.1,18.6,29.5,18.6H266c6.9,0,13.6-2.9,18.4-8c4.7-5,7.1-11.5,6.6-18.3
			C291.1,520.2,290.8,518.4,290.4,516.5z M274.3,530.7c-2.1,2.2-5,3.5-8.1,3.5H250c-5.1,0-14-1-15.8-8.1l-7.7-29.3
			c-1.6-6.2-4.2-12.1-7.7-17.5l-48.6-82.9c-8.8-15.1-14.4-31.5-16.7-48.8l-9.8-76.1c-0.7-6.2,3.7-11.8,10-12.6
			c6.2-0.7,11.9,3.7,12.6,10l10.3,87.2c-5.4,7.2-6.8,16.9-3,25.6c0.2,0.4,0.8,1.5,0.8,1.7l20.1,33.4c1.3,2.2,3.7,3.4,6,3.4
			c1.2,0,2.5-0.3,3.6-1c3.3-2,4.4-6.3,2.4-9.7l-20-33.1c-0.1-0.1-0.1-0.2-0.2-0.4c-2.4-5.4-0.2-11.7,4.9-14.5
			c2.7-1.4,5.8-1.6,8.7-0.7s5.2,3,6.6,5.7c0.1,0.2,0.2,0.3,0.3,0.5l50.2,83c2.9,5.3,5.4,10.8,7.5,16.5l12.1,53.2
			c0.2,1.1,0.4,2.2,0.5,3.3C277.3,525.8,276.3,528.5,274.3,530.7z M461,245c-13.9-1.6-26.6,8.4-28.3,22.3l-9.4,79.8
			c-11.4-3.2-23.8,1.9-29.4,12.8l-50.1,83c-0.1,0.1-0.1,0.2-0.2,0.3c-3.3,6-6.2,12.4-8.6,18.8c-0.1,0.3-0.2,0.6-0.3,0.9l-12.2,53.7
			c-0.3,1.5-0.6,3-0.7,4.5c-0.6,6.9,1.7,13.9,6.4,19c4.7,5.2,11.5,8.2,18.5,8.2H363c15.4,0,26.4-6.9,29.5-18.6l7.7-29.3
			c1.3-4.8,3.3-9.4,6-13.6c0.1-0.1,0.1-0.2,0.2-0.3l48.6-83c9.8-16.7,16-34.9,18.5-54.2l9.8-76.1v-0.1
			C484.9,259.3,474.9,246.6,461,245z M469.3,271.6l-9.8,76.1c-2.2,17.3-7.8,33.8-16.7,48.8l-48.6,82.9c-3.5,5.4-6.1,11.3-7.7,17.5
			l-7.7,29.3c-1.8,7-10.7,8.1-15.8,8.1h-16.2c-3.1,0-6-1.3-8.1-3.6s-3.1-5.2-2.8-8.2c0.1-0.9,0.2-1.8,0.4-2.7l12.1-53.2
			c2.1-5.6,4.7-11.2,7.5-16.5L406,367c0.1-0.2,0.2-0.3,0.3-0.4c1.4-2.7,3.7-4.7,6.6-5.7c2.9-0.9,6-0.7,8.7,0.7
			c5.1,2.8,7.3,9.1,4.9,14.5c-0.1,0.1-0.1,0.2-0.2,0.4l-20,33.1c-2,3.3-0.9,7.7,2.4,9.7c1.1,0.7,2.4,1,3.6,1c2.4,0,4.7-1.2,6-3.4
			l20.1-33.4c0.1-0.1,0.2-0.3,0.2-0.4c0.2-0.4,0.4-0.8,0.6-1.2c3.8-8.7,2.4-18.5-3-25.6l10.3-87.2c0.7-6.2,6.4-10.7,12.6-9.9
			C465.5,259.7,470,265.4,469.3,271.6z"/>
	</g>
</g>
</svg>
