<?xml version="1.0" encoding="UTF-8"?>
<!DOCTYPE svg PUBLIC "-//W3C//DTD SVG 1.1//EN" "http://www.w3.org/Graphics/SVG/1.1/DTD/svg11.dtd">
<!-- Creator: CorelDRAW Home & Student X6 -->
<svg xmlns="http://www.w3.org/2000/svg" xml:space="preserve" width="28.5326mm" height="25.4846mm" version="1.1" style="shape-rendering:geometricPrecision; text-rendering:geometricPrecision; image-rendering:optimizeQuality; fill-rule:evenodd; clip-rule:evenodd"
viewBox="0 0 2853 2548"
 xmlns:xlink="http://www.w3.org/1999/xlink">
 <defs>
  <style type="text/css">
   <![CDATA[
    .fil0 {fill:black;fill-rule:nonzero}
   ]]>
  </style>
 </defs>
 <g id="Layer_x0020_1">
  <metadata id="CorelCorpID_0Corel-Layer"/>
  <g id="_385324272">
   <path class="fil0" d="M1903 1648c-42,-44 -97,-72 -159,-77 -36,47 -81,86 -132,114 -55,30 -118,47 -184,47 -66,0 -129,-17 -184,-47 -52,-28 -97,-67 -132,-114 -62,5 -118,33 -159,77 -45,47 -73,113 -73,185l0 584 1099 0 0 -584c0,-72 -28,-137 -73,-185z"/>
   <path class="fil0" d="M1662 1067c-60,-63 -143,-101 -235,-101 -92,0 -175,39 -235,101 -60,63 -97,149 -97,245 0,96 37,182 97,245 60,63 143,101 235,101 92,0 175,-39 235,-101 60,-63 97,-149 97,-245 0,-96 -37,-182 -97,-245z"/>
   <path class="fil0" d="M970 1371c-21,-8 -43,-13 -66,-15 -36,47 -81,86 -132,114 -55,30 -118,47 -184,47 -66,0 -129,-17 -184,-47 -52,-28 -97,-67 -132,-114 -62,5 -118,33 -159,77 -45,47 -73,113 -73,185l0 584 769 0 0 -370c0,-92 36,-176 94,-236 45,-47 103,-80 167,-93 -4,-8 -8,-17 -11,-25 -9,-23 -17,-46 -22,-71 -20,-15 -41,-27 -64,-36z"/>
   <path class="fil0" d="M822 852c-60,-63 -143,-102 -235,-102 -92,0 -175,39 -235,102 -60,63 -97,149 -97,245 0,96 37,182 97,245 60,63 143,102 235,102 92,0 175,-39 235,-102 60,-63 97,-149 97,-245 0,-96 -37,-182 -97,-245z"/>
   <path class="fil0" d="M1949 1357c-23,2 -45,7 -66,15 -23,9 -45,21 -64,36 -6,26 -14,51 -24,75 -3,7 -6,14 -9,21 65,13 123,46 167,93 58,61 94,145 94,236l0 370 769 0 0 -584c0,-72 -28,-137 -73,-185 -41,-44 -97,-72 -159,-77 -36,47 -81,86 -132,114 -55,30 -118,47 -184,47 -66,0 -129,-17 -184,-47 -52,-28 -97,-67 -132,-114z"/>
   <path class="fil0" d="M2266 751c-92,0 -175,39 -235,102 -60,63 -97,149 -97,245 0,190 150,347 332,347 182,0 332,-156 332,-347 0,-96 -37,-182 -97,-245 -60,-63 -143,-102 -235,-102z"/>
   <path class="fil0" d="M1335 674c-31,-33 -73,-54 -119,-59 -29,37 -65,68 -106,90 -45,24 -96,38 -150,38 -54,0 -105,-14 -150,-38 -41,-22 -77,-53 -105,-90 -32,3 -62,15 -88,33 -12,8 -23,18 -33,29 2,0 3,0 5,0 111,0 212,47 285,123 73,76 118,181 118,297 0,42 -6,84 -18,123 -6,19 -12,37 -20,55l73 0c8,-101 51,-192 116,-260 65,-68 152,-113 250,-122l0 -77c0,-55 -22,-106 -56,-142z"/>
   <path class="fil0" d="M1143 210c-47,-49 -111,-79 -182,-79 -71,0 -136,30 -182,79 -47,49 -76,116 -76,190 0,74 29,142 76,190 47,49 111,79 182,79 71,0 136,-30 182,-79 47,-49 76,-116 76,-190 0,-74 -29,-142 -76,-190z"/>
   <path class="fil0" d="M2237 648c-26,-18 -56,-29 -88,-33 -29,37 -65,68 -106,90 -45,24 -96,38 -150,38 -54,0 -105,-14 -150,-38 -41,-22 -77,-53 -106,-90 -46,5 -88,26 -119,59 -35,36 -56,87 -56,142l0 77c97,9 184,54 250,122 65,68 108,159 117,260l73 0c-8,-18 -15,-36 -20,-55 -11,-39 -18,-81 -18,-123 0,-116 45,-221 118,-297 73,-76 174,-123 285,-123 2,0 3,0 5,0 -10,-11 -21,-21 -33,-29z"/>
   <path class="fil0" d="M2076 210c-47,-49 -111,-79 -182,-79 -71,0 -136,30 -182,79 -47,49 -76,116 -76,190 0,74 29,142 76,190 47,49 111,79 182,79 71,0 136,-30 182,-79 47,-49 76,-116 76,-190 0,-74 -29,-142 -76,-190z"/>
  </g>
 </g>
</svg>
