<?xml version="1.0" encoding="utf-8"?>
<!-- Generator: Adobe Illustrator 19.0.0, SVG Export Plug-In . SVG Version: 6.00 Build 0)  -->
<svg version="1.1" id="Layer_1" xmlns="http://www.w3.org/2000/svg" xmlns:xlink="http://www.w3.org/1999/xlink" x="0px" y="0px"
	 viewBox="117.6 178.3 376.8 435.4" style="enable-background:new 117.6 178.3 376.8 435.4;" xml:space="preserve">
<g>
	<g id="XMLID_49_">
		<path id="XMLID_51_" d="M306,178.3c-103.9,0-188.4,82-188.4,184c0,58.5,28.3,113.1,76.1,147.7v87.6c0,6.8,4,12.9,10.2,15.6
			c6.2,2.7,13.5,1.5,18.5-3.1l70.4-64.4c4.4,0.3,8.9,0.5,13.2,0.5c103.9,0,188.4-82,188.4-184C494.4,260.2,409.8,178.3,306,178.3z
			 M306,512.2c-5.7,0-11.6-0.3-17.4-1c-4.9-0.5-9.8,1.1-13.5,4.4l-47.2,43.2v-57.7c0-5.7-2.9-11.1-7.7-14.3
			c-42.8-27.9-68.4-74.5-68.4-124.6c0-82.6,69.2-149.9,154.2-149.9s154.2,67.2,154.2,149.9S391,512.2,306,512.2z M314.6,262.6h-60
			c-9.5,0-17.1,7.6-17.1,17s7.7,17,17.1,17h60c14.2,0,25.7,11.5,25.7,25.6s-11.5,25.6-25.7,25.6h-17.1c-9.5,0-17.1,7.6-17.1,17v24.5
			c0,9.4,7.7,17,17.1,17s17.1-7.6,17.1-17v-7.5c33.1,0,60-26.8,60-59.7C374.5,289.3,347.6,262.6,314.6,262.6z M297.4,427.3
			c-12.8,0-23.1,10.3-23.1,23s10.4,23,23.1,23c12.8,0,23.1-10.3,23.1-23C320.6,437.6,310.2,427.3,297.4,427.3z"/>
	</g>
</g>
</svg>
