<?xml version="1.0" encoding="UTF-8"?>
<!DOCTYPE svg PUBLIC "-//W3C//DTD SVG 1.1//EN" "http://www.w3.org/Graphics/SVG/1.1/DTD/svg11.dtd">
<!-- Creator: CorelDRAW Home & Student X6 -->
<svg xmlns="http://www.w3.org/2000/svg" xml:space="preserve" width="43.0106mm" height="43.0106mm" version="1.1" style="shape-rendering:geometricPrecision; text-rendering:geometricPrecision; image-rendering:optimizeQuality; fill-rule:evenodd; clip-rule:evenodd"
viewBox="0 0 4301 4301"
 xmlns:xlink="http://www.w3.org/1999/xlink">
 <defs>
  <style type="text/css">
   <![CDATA[
    .str0 {stroke:#35868B;stroke-width:7.62}
    .fil1 {fill:#35868B}
    .fil2 {fill:#858585}
    .fil0 {fill:white}
   ]]>
  </style>
 </defs>
 <g id="Layer_x0020_1">
  <metadata id="CorelCorpID_0Corel-Layer"/>
  <g id="_604286584">
   <path class="fil0" d="M1636 2602c11,-16 15,-24 24,-36l25 -26c29,45 299,711 346,822 25,60 85,237 119,271l455 -1096c2,1 4,4 6,5 39,36 379,534 385,550l-423 0 -420 576c-21,-12 -5,0 -21,-17l-40 -54c-19,-26 -33,-47 -54,-73l-318 -432 -423 -3 339 -488zm345 -1847c-172,81 -147,10 -352,206 -50,48 -186,266 -186,370 0,24 62,92 63,209 1,183 28,378 -74,485 -70,73 -91,53 -192,88 -65,239 222,378 403,432 -27,37 -109,80 -150,100 -507,253 -815,-59 -824,868 -1,149 76,212 211,279 382,187 861,176 1269,176 418,0 893,9 1272,-181 142,-71 203,-133 201,-282 -1,-142 -10,-306 -47,-436 -38,-135 -100,-217 -222,-261 -121,-43 -264,-53 -389,-94 -99,-33 -264,-105 -316,-168 150,-54 390,-162 405,-314 1,-34 5,-9 -13,-16 -55,74 -239,156 -370,174 -104,15 -162,3 -258,-13 -62,-10 -107,49 -216,-4 -242,-117 -103,-488 160,-414 72,20 95,56 131,106l17 20c129,24 259,-27 328,-87 -47,-107 -48,-99 -47,-238 0,-82 -7,-199 2,-276 17,-146 86,-85 48,-207 -64,-206 -174,-370 -377,-470 -159,-78 -293,-77 -479,-53z"/>
   <path class="fil0" d="M2553 693c101,36 235,181 291,266 72,110 127,253 136,414 -114,70 -90,154 -90,312 0,147 -20,242 90,304 -27,62 -140,141 -224,174 -97,38 -235,48 -334,7 -23,-40 -22,-64 -55,-91 -99,-82 -248,45 -172,164 63,98 176,24 191,24 14,0 82,20 108,24 232,33 464,-78 577,-252 61,-93 153,-24 152,-251 0,-87 6,-195 -1,-279 -10,-123 -87,-93 -96,-178 -39,-421 -358,-809 -789,-878 -268,-80 -601,47 -769,168 -206,148 -370,392 -401,710 -11,117 -97,-6 -96,270 0,156 -36,338 102,393 68,27 145,2 184,-36 49,-49 48,-110 48,-197 0,-209 34,-305 -90,-390 23,-455 403,-783 819,-789 115,-2 369,46 419,110z"/>
   <path class="fil1 str0" d="M1298 3090l423 3 318 432c20,26 35,47 54,73l40 54c17,17 1,5 21,17l420 -576 423 0c-7,-16 -346,-514 -385,-550 -1,-1 -4,-3 -6,-5l-455 1096c-33,-34 -93,-211 -119,-271 -47,-111 -317,-777 -346,-822l-25 26c-8,11 -13,20 -24,36l-339 488z"/>
   <path class="fil2" d="M3042 2217c18,7 14,-18 13,16l14 -30c-48,4 -13,-2 -27,14z"/>
  </g>
 </g>
</svg>
