<?xml version="1.0" encoding="utf-8"?>
<!-- Generator: Adobe Illustrator 19.0.0, SVG Export Plug-In . SVG Version: 6.00 Build 0)  -->
<svg version="1.1" id="Layer_1" xmlns="http://www.w3.org/2000/svg" xmlns:xlink="http://www.w3.org/1999/xlink" x="0px" y="0px"
	 viewBox="132 193.7 348 404.6" style="enable-background:new 132 193.7 348 404.6;" xml:space="preserve">
<path d="M475.8,553c-0.8,2.2-2.4,4-4.4,5.3c-2.5,1.6-63.2,40.1-164.8,40.1S144.3,560,141.8,558.3c-2-1.3-3.5-3.1-4.4-5.3
	c-4.5-11.2-4.4-33.6-4.3-38c0-0.1,0-0.2,0-0.3c0.1-0.7,0.1-1.3,0.1-2.1c0.5-16.5,1.6-55.3,38.3-67.8c0.3-0.1,0.5-0.2,0.8-0.3
	c38.3-9.6,69.7-31.4,70.1-31.7c5.1-3.6,12.2-2.3,15.9,2.8c3.6,5.1,2.4,12.1-2.8,15.8c-1.4,0.9-35,24.2-77.1,34.9
	c-19.7,7-21.9,27.8-22.5,46.9c0,0.8-0.1,1.4-0.1,2.1c-0.2,7.5,0.4,19.2,1.8,25.9c13.8,7.7,67.7,34.4,149,34.4
	c81.6,0,135.2-26.6,148.9-34.4c1.4-6.7,1.9-18.4,1.8-25.9c-0.1-0.7-0.1-1.3-0.1-2.1c-0.6-19.1-2.8-40-22.5-46.9
	c-42.1-10.7-75.7-33.9-77.1-34.9c-5.2-3.6-6.4-10.6-2.8-15.8c3.6-5.1,10.7-6.4,15.9-2.8c0.3,0.3,32,22,70.1,31.7
	c0.3,0.1,0.6,0.2,0.8,0.3c36.6,12.4,37.7,51.2,38.3,67.8c0,0.8,0.1,1.4,0.1,2.1c0,0.1,0,0.2,0,0.3C480,519.5,480.1,541.9,475.8,553z
	 M367.3,386.2c-14.8,16.5-34.8,25.1-59.5,25.6c-0.3,0-0.6,0-0.8,0c-0.2,0-0.3,0-0.5,0c-0.5,0-0.9,0-1.4,0
	c-24.7-0.4-44.8-9-59.5-25.6c-32.5-36.4-27.1-98.7-26.5-104.7c2.1-45,23.7-66.4,41.5-76.3c17.7-10,36.1-11.5,45.4-11.5h0.5
	c0.1,0,0.3,0,0.3,0h0.6c17.1,0.3,32.3,4.4,45.4,11.8c17.6,10,38.8,31.3,41,76C394.4,287.4,399.8,349.8,367.3,386.2z M371.1,283.6
	c-0.1-0.2-0.1-0.4-0.1-0.7c-2.6-56.8-41.4-66-64.2-66.5c-0.3,0-0.5,0-0.7,0h-0.3c-18.4,0-61.4,6.5-64.2,66.5c0,0.2-0.1,0.4-0.1,0.7
	c-0.1,0.5-5.8,57.7,20.9,87.6c10.6,11.9,24.8,17.8,43.4,17.9c0.2,0,0.3,0,0.4,0c0.2,0,0.3,0,0.4,0c18.7-0.2,32.8-6,43.5-17.9
	C377.1,341.1,371.2,284.2,371.1,283.6z"/>
</svg>
