<svg version="1.1" xmlns="http://www.w3.org/2000/svg" viewBox="-295 97 368 368">
<path d="M-47,241c-4.4,0-8,3.6-8,8s3.6,8,8,8s8-3.6,8-8S-42.6,241-47,241z"/>
<path d="M-111,97c-101.5,0-184,82.5-184,184s82.5,184,184,184S73,382.5,73,281S-9.5,97-111,97z M-199,249c0-13.2,10.8-24,24-24
	s24,10.8,24,24s-10.8,24-24,24S-199,262.2-199,249z M-33,334.3c-19.7,22-48.1,34.7-78,34.7c-29.8,0-58.2-12.6-78-34.7
	c-2.9-3.3-2.7-8.4,0.6-11.3c3.3-3,8.3-2.7,11.3,0.6c16.7,18.6,40.8,29.3,66,29.3c25.3,0,49.4-10.7,66-29.3c2.9-3.3,8-3.6,11.3-0.6
	C-30.4,326-30.1,331-33,334.3z M-47,273c-13.2,0-24-10.8-24-24s10.8-24,24-24s24,10.8,24,24S-33.8,273-47,273z"/>
<path d="M-167,249c0-4.4-3.6-8-8-8s-8,3.6-8,8s3.6,8,8,8S-167,253.4-167,249z"/>
</svg>
