<svg version="1.1" xmlns="http://www.w3.org/2000/svg" viewBox="161.6 204.7 288.8 382.6">
<g>
	<g id="XMLID_63_">
		<path id="XMLID_64_" d="M306.5,204.7c-79.3,0-143.9,65.6-143.9,146.1c0,51.6,26.5,97.1,66.4,123.1v103.2c0,4.1,2.2,8,5.8,9.9
			c3.6,2,8,1.7,11.4-0.6l60.3-40.8l60.3,40.8c3.4,2.3,7.8,2.5,11.4,0.6c3.6-2,5.8-5.8,5.8-9.9V473.9c39.9-26,66.4-71.5,66.4-123.1
			C450.4,270.2,385.8,204.7,306.5,204.7z M361.8,556.1l-49.2-33.3c-3.7-2.5-8.6-2.5-12.3,0l-49.2,33.3v-70.4
			c17,7.2,35.7,11.2,55.3,11.2s38.3-4,55.3-11.2v70.4H361.8z M306.5,474.4c-67.1,0-121.7-55.5-121.7-123.6
			c0-68.2,54.6-123.6,121.7-123.6s121.7,55.5,121.7,123.6C428.2,419,373.6,474.4,306.5,474.4z M394.5,324.5c-1.3-4.1-4.8-7.1-9-7.7
			l-47.8-6.9L316.4,267c-1.9-3.8-5.7-6.2-9.9-6.2c-4.2,0-8,2.4-9.9,6.2l-21.3,42.9l-47.8,6.9c-4.2,0.6-7.7,3.6-9,7.7
			s-0.2,8.6,2.9,11.6l34.4,33.3l-8.1,46.9c-0.7,4.2,1,8.5,4.3,11c3.4,2.5,7.9,2.9,11.6,1l42.8-22.3l42.8,22.3c3.7,2,8.2,1.6,11.6-1
			c3.4-2.5,5.1-6.8,4.3-11l-8.1-46.9l34.4-33.3C394.7,333.1,395.8,328.6,394.5,324.5z M337.6,357.2c-2.7,2.6-3.9,6.4-3.3,10.1
			l5.3,30.6l-28.1-14.6c-3.2-1.7-6.9-1.7-10.1,0l-28.1,14.6l5.3-30.6c0.6-3.7-0.6-7.5-3.3-10.1l-22.2-21.4l30.9-4.5
			c3.6-0.5,6.7-2.8,8.3-6.1l14.1-28.3l14.1,28.3c1.6,3.3,4.7,5.5,8.3,6.1l30.9,4.5L337.6,357.2z"/>
	</g>
</g>
</svg>
