<svg version="1.1" xmlns="http://www.w3.org/2000/svg" viewBox="-295 97 368 368">
<path d="M-111,305c-22.1,0-40,17.9-40,40v32c0,4.4,3.6,8,8,8h64c4.4,0,8-3.6,8-8v-32C-71,322.9-88.9,305-111,305z"/>
<path d="M-175,241c-4.4,0-8,3.6-8,8s3.6,8,8,8s8-3.6,8-8S-170.6,241-175,241z"/>
<path d="M-47,241c-4.4,0-8,3.6-8,8s3.6,8,8,8s8-3.6,8-8S-42.6,241-47,241z"/>
<path d="M-111,97c-101.5,0-184,82.5-184,184s82.5,184,184,184S73,382.5,73,281S-9.5,97-111,97z M-199,249c0-13.2,10.8-24,24-24
	s24,10.8,24,24s-10.8,24-24,24S-199,262.2-199,249z M-55,377c0,13.2-10.8,24-24,24h-64c-13.2,0-24-10.8-24-24v-32
	c0-30.9,25.1-56,56-56s56,25.1,56,56V377z M-47,273c-13.2,0-24-10.8-24-24s10.8-24,24-24s24,10.8,24,24S-33.8,273-47,273z"/>
</svg>
